<svg width="77" height="76" viewBox="0 0 77 76" fill="none" xmlns="http://www.w3.org/2000/svg">
<g filter="url(#filter0_d)">
<ellipse cx="29.1351" cy="20.1079" rx="4.46643" ry="12.0599" transform="rotate(-19.603 29.1351 20.1079)" fill="url(#paint0_angular)"/>
<path d="M32.8717 18.7771C33.9744 21.8734 34.4997 24.8215 34.4714 27.0754C34.4572 28.2044 34.3044 29.1313 34.0362 29.8087C33.7675 30.4872 33.409 30.857 33.0135 30.9978C32.618 31.1387 32.1065 31.0788 31.4694 30.7228C30.8334 30.3675 30.1291 29.7459 29.4044 28.88C27.9578 27.1514 26.5013 24.5349 25.3986 21.4386C24.2959 18.3423 23.7706 15.3942 23.7989 13.1403C23.8131 12.0113 23.9659 11.0844 24.2341 10.4071C24.5028 9.72855 24.8613 9.35881 25.2568 9.21795C25.6523 9.07709 26.1638 9.137 26.8009 9.49295C27.4369 9.84826 28.1412 10.4699 28.8659 11.3358C30.3125 13.0644 31.769 15.6809 32.8717 18.7771Z" stroke="black" stroke-opacity="0.26"/>
<ellipse cx="45.1183" cy="30.6303" rx="4.46643" ry="12.0599" transform="rotate(72.3097 45.1183 30.6303)" fill="url(#paint1_angular)"/>
<path d="M46.3236 34.4092C43.1922 35.408 40.2282 35.8346 37.9765 35.7311C36.8486 35.6792 35.9273 35.4955 35.2593 35.2049C34.5901 34.9137 34.2326 34.5431 34.105 34.1431C33.9774 33.7431 34.0544 33.2339 34.4314 32.609C34.8077 31.9852 35.4525 31.302 36.3421 30.6067C38.118 29.2186 40.7817 27.8502 43.913 26.8515C47.0444 25.8527 50.0084 25.4261 52.26 25.5296C53.3879 25.5815 54.3092 25.7651 54.9772 26.0558C55.6464 26.347 56.004 26.7176 56.1316 27.1176C56.2592 27.5176 56.1822 28.0268 55.8052 28.6517C55.4289 29.2755 54.7841 29.9587 53.8945 30.654C52.1186 32.0421 49.4549 33.4105 46.3236 34.4092Z" stroke="black" stroke-opacity="0.26"/>
<ellipse cx="47.075" cy="34.4308" rx="4.46644" ry="12.0599" transform="rotate(89.1267 47.075 34.4308)" fill="url(#paint2_angular)"/>
<path d="M47.1354 38.3968C43.849 38.4469 40.8883 37.9977 38.7629 37.2472C37.6982 36.8712 36.8695 36.4288 36.3141 35.9573C35.7578 35.485 35.5227 35.0268 35.5163 34.607C35.5099 34.1872 35.7309 33.722 36.2726 33.2329C36.8133 32.7447 37.6282 32.2773 38.6809 31.8691C40.7825 31.0541 43.7281 30.5149 47.0145 30.4648C50.3009 30.4147 53.2616 30.8639 55.387 31.6144C56.4517 31.9904 57.2804 32.4327 57.8358 32.9042C58.3921 33.3766 58.6272 33.8348 58.6336 34.2546C58.64 34.6744 58.419 35.1396 57.8773 35.6287C57.3366 36.1169 56.5217 36.5843 55.469 36.9925C53.3674 37.8075 50.4218 38.3467 47.1354 38.3968Z" stroke="black" stroke-opacity="0.26"/>
<ellipse cx="41.164" cy="20.0746" rx="4.46644" ry="12.0599" transform="rotate(36.098 41.164 20.0746)" fill="url(#paint3_angular)"/>
<path d="M44.3689 22.4115C42.4324 25.0672 40.293 27.1625 38.4151 28.4092C37.4744 29.0337 36.6226 29.4298 35.9119 29.5899C35.1999 29.7503 34.6925 29.6625 34.3532 29.4151C34.014 29.1678 33.7752 28.7115 33.7103 27.9845C33.6454 27.2589 33.762 26.3268 34.069 25.2402C34.6818 23.0711 36.0226 20.3934 37.9591 17.7377C39.8955 15.0819 42.035 12.9866 43.9129 11.7399C44.8535 11.1154 45.7054 10.7194 46.4161 10.5593C47.1281 10.3989 47.6355 10.4866 47.9747 10.734C48.314 10.9814 48.5527 11.4377 48.6177 12.1646C48.6826 12.8902 48.5659 13.8224 48.2589 14.9089C47.6461 17.0781 46.3054 19.7557 44.3689 22.4115Z" stroke="black" stroke-opacity="0.26"/>
<ellipse cx="44.9795" cy="23.931" rx="4.46643" ry="12.0599" transform="rotate(53.7891 44.9795 23.931)" fill="url(#paint4_angular)"/>
<path d="M47.3227 27.1313C44.6707 29.073 41.9958 30.4191 39.8278 31.0361C38.7419 31.3453 37.8099 31.4637 37.0842 31.4003C36.3572 31.3368 35.9004 31.0989 35.6524 30.7602C35.4043 30.4214 35.3155 29.9141 35.4745 29.2019C35.6332 28.4909 36.0276 27.6382 36.6503 26.6963C37.8933 24.816 39.9843 22.6724 42.6363 20.7307C45.2882 18.789 47.9632 17.443 50.1311 16.8259C51.2171 16.5168 52.149 16.3983 52.8747 16.4617C53.6018 16.5253 54.0585 16.7631 54.3066 17.1019C54.5546 17.4406 54.6434 17.9479 54.4844 18.6602C54.3257 19.3712 53.9313 20.2238 53.3087 21.1657C52.0656 23.0461 49.9746 25.1896 47.3227 27.1313Z" stroke="black" stroke-opacity="0.26"/>
<ellipse cx="25.0427" cy="47.9272" rx="4.46644" ry="12.0599" transform="rotate(-145.761 25.0427 47.9272)" fill="url(#paint5_angular)"/>
<path d="M21.7636 45.6955C23.6129 42.9784 25.6833 40.8148 27.5197 39.5078C28.4396 38.8531 29.2782 38.4296 29.9833 38.2465C30.6897 38.0631 31.1997 38.1344 31.5468 38.3706C31.8939 38.6069 32.1473 39.0552 32.2358 39.7796C32.3242 40.5027 32.2379 41.4382 31.9663 42.5341C31.4242 44.722 30.171 47.4417 28.3217 50.1589C26.4724 52.8761 24.4021 55.0397 22.5656 56.3466C21.6457 57.0013 20.8071 57.4248 20.102 57.6079C19.3956 57.7913 18.8856 57.72 18.5385 57.4838C18.1914 57.2476 17.938 56.7993 17.8495 56.0749C17.7611 55.3517 17.8475 54.4163 18.119 53.3203C18.6611 51.1324 19.9143 48.4127 21.7636 45.6955Z" stroke="black" stroke-opacity="0.26"/>
<ellipse cx="19.2713" cy="28.1897" rx="4.46643" ry="12.0599" transform="rotate(-74.8436 19.2713 28.1897)" fill="url(#paint6_angular)"/>
<path d="M20.3084 24.3612C23.4808 25.2206 26.2024 26.4698 28.0379 27.778C28.9574 28.4334 29.6318 29.0874 30.0353 29.6939C30.4396 30.3015 30.539 30.8068 30.4292 31.2121C30.3194 31.6173 29.9786 32.0034 29.3229 32.3239C28.6684 32.6438 27.7561 32.868 26.6316 32.9697C24.3867 33.1726 21.4068 32.8775 18.2343 32.0181C15.0619 31.1588 12.3403 29.9096 10.5048 28.6013C9.58532 27.946 8.91094 27.292 8.5074 26.6854C8.10313 26.0778 8.00374 25.5725 8.11351 25.1673C8.22328 24.762 8.56412 24.376 9.21979 24.0555C9.87428 23.7356 10.7866 23.5113 11.9111 23.4097C14.156 23.2067 17.1359 23.5019 20.3084 24.3612Z" stroke="black" stroke-opacity="0.26"/>
<ellipse cx="48.4669" cy="41.4207" rx="4.46643" ry="12.0599" transform="rotate(113.064 48.4669 41.4207)" fill="url(#paint7_angular)"/>
<path d="M46.913 45.0701C43.8889 43.7824 41.3651 42.1706 39.727 40.6223C38.9065 39.8467 38.3285 39.1061 38.0123 38.4498C37.6954 37.7924 37.6665 37.2782 37.831 36.8919C37.9955 36.5056 38.3862 36.1701 39.0797 35.9429C39.772 35.7161 40.7064 35.6195 41.8342 35.6735C44.0857 35.7813 46.9967 36.4837 50.0208 37.7713C53.0448 39.0589 55.5686 40.6707 57.2067 42.2191C58.0273 42.9947 58.6053 43.7353 58.9215 44.3915C59.2384 45.049 59.2673 45.5632 59.1028 45.9495C58.9383 46.3357 58.5476 46.6712 57.8541 46.8985C57.1618 47.1253 56.2273 47.2219 55.0995 47.1679C52.8481 47.0601 49.937 46.3577 46.913 45.0701Z" stroke="black" stroke-opacity="0.26"/>
<ellipse cx="23.5057" cy="24.6309" rx="4.46643" ry="12.06" transform="rotate(-45.5674 23.5057 24.6309)" fill="url(#paint8_angular)"/>
<path d="M26.2825 21.7986C28.6295 24.0996 30.3925 26.5201 31.3539 28.5589C31.8354 29.5802 32.1038 30.4804 32.1592 31.2068C32.2147 31.9345 32.0543 32.4239 31.7604 32.7237C31.4665 33.0235 30.9804 33.1936 30.2517 33.1525C29.5244 33.1115 28.619 32.861 27.5884 32.3997C25.531 31.479 23.076 29.7642 20.7289 27.4633C18.3819 25.1623 16.6189 22.7417 15.6576 20.703C15.176 19.6817 14.9076 18.7814 14.8522 18.055C14.7967 17.3273 14.9571 16.838 15.2511 16.5382C15.545 16.2384 16.0311 16.0683 16.7597 16.1094C17.4871 16.1504 18.3925 16.4009 19.4231 16.8621C21.4805 17.7829 23.9355 19.4976 26.2825 21.7986Z" stroke="black" stroke-opacity="0.26"/>
<ellipse cx="42.348" cy="44.3607" rx="4.46643" ry="12.0599" transform="rotate(132.857 42.348 44.3607)" fill="url(#paint9_angular)"/>
<path d="M39.6502 47.2684C37.2408 45.0328 35.4119 42.6616 34.3949 40.65C33.8854 39.6424 33.5923 38.7499 33.517 38.0253C33.4415 37.2994 33.5884 36.8058 33.874 36.498C34.1595 36.1903 34.6408 36.0069 35.3703 36.0279C36.0985 36.0489 37.0104 36.2744 38.0533 36.7071C40.1353 37.571 42.6365 39.2176 45.0459 41.4531C47.4553 43.6887 49.2842 46.0599 50.3012 48.0714C50.8107 49.079 51.1037 49.9716 51.1791 50.6962C51.2546 51.4221 51.1077 51.9157 50.8221 52.2235C50.5365 52.5312 50.0553 52.7146 49.3258 52.6936C48.5976 52.6726 47.6856 52.4471 46.6428 52.0143C44.5608 51.1505 42.0596 49.5039 39.6502 47.2684Z" stroke="black" stroke-opacity="0.26"/>
<ellipse cx="34.9175" cy="20.3222" rx="4.46643" ry="12.0599" transform="rotate(11.3181 34.9175 20.3222)" fill="url(#paint10_angular)"/>
<path d="M38.8068 21.1006C38.1618 24.3235 37.0975 27.1225 35.9151 29.0415C35.3228 30.0028 34.7153 30.7194 34.1372 31.1627C33.558 31.6067 33.0605 31.7397 32.6488 31.6573C32.2371 31.5749 31.8291 31.2607 31.4654 30.6279C31.1024 29.9963 30.8176 29.1011 30.6409 27.9859C30.2881 25.7597 30.3832 22.7666 31.0282 19.5437C31.6733 16.3209 32.7375 13.5218 33.92 11.6028C34.5123 10.6416 35.1197 9.92492 35.6978 9.48168C36.277 9.03764 36.7745 8.90465 37.1862 8.98705C37.5979 9.06945 38.0059 9.38368 38.3696 10.0164C38.7326 10.648 39.0174 11.5433 39.1941 12.6584C39.5469 14.8847 39.4519 17.8778 38.8068 21.1006Z" stroke="black" stroke-opacity="0.26"/>
<ellipse cx="30.5084" cy="47.9728" rx="4.46644" ry="12.06" transform="rotate(-167.033 30.5084 47.9728)" fill="url(#paint11_angular)"/>
<path d="M26.6431 47.0828C27.3806 43.8798 28.525 41.1125 29.7622 39.2284C30.3819 38.2845 31.0097 37.5857 31.6004 37.1593C32.1921 36.7321 32.6933 36.6135 33.1024 36.7077C33.5115 36.8019 33.9103 37.1277 34.2556 37.7707C34.6003 38.4125 34.8592 39.3155 35.0038 40.4353C35.2923 42.6708 35.1112 45.6599 34.3736 48.8629C33.6361 52.0658 32.4917 54.8331 31.2545 56.7173C30.6348 57.6611 30.007 58.36 29.4163 58.7864C28.8246 59.2136 28.3235 59.3322 27.9143 59.238C27.5052 59.1438 27.1064 58.8179 26.7611 58.175C26.4164 57.5332 26.1575 56.6301 26.013 55.5103C25.7244 53.2748 25.9055 50.2857 26.6431 47.0828Z" stroke="black" stroke-opacity="0.26"/>
<ellipse cx="19.1273" cy="32.9539" rx="4.46644" ry="12.0599" transform="rotate(-92.305 19.1273 32.9539)" fill="url(#paint12_angular)"/>
<path d="M18.9677 28.9907C22.2519 28.8585 25.2228 29.2335 27.3664 29.9307C28.4401 30.28 29.2796 30.7015 29.8466 31.159C30.4145 31.6173 30.661 32.0695 30.6779 32.489C30.6947 32.9085 30.4855 33.379 29.9562 33.8815C29.4278 34.3831 28.6249 34.8707 27.5827 35.3051C25.5021 36.1723 22.5709 36.7849 19.2868 36.9171C16.0027 37.0493 13.0317 36.6743 10.8882 35.9771C9.81445 35.6279 8.9749 35.2063 8.40795 34.7488C7.83999 34.2905 7.59356 33.8383 7.57667 33.4188C7.55979 32.9993 7.76908 32.5288 8.29837 32.0263C8.82671 31.5247 9.62967 31.0371 10.6718 30.6027C12.7524 29.7355 15.6836 29.1229 18.9677 28.9907Z" stroke="black" stroke-opacity="0.26"/>
<ellipse cx="24.3259" cy="41.9471" rx="4.46643" ry="12.0599" transform="rotate(-121.103 24.3259 41.9471)" fill="url(#paint13_angular)"/>
<path d="M22.277 38.5509C25.0912 36.853 27.8754 35.7505 30.0897 35.3289C31.1989 35.1177 32.1376 35.0826 32.8549 35.2104C33.5733 35.3384 34.0071 35.616 34.224 35.9755C34.4409 36.335 34.4842 36.8481 34.2624 37.5434C34.041 38.2375 33.5723 39.0516 32.8682 39.9344C31.4628 41.6966 29.1892 43.6455 26.3749 45.3433C23.5606 47.0412 20.7764 48.1437 18.5622 48.5654C17.453 48.7766 16.5142 48.8116 15.797 48.6838C15.0785 48.5558 14.6447 48.2782 14.4279 47.9187C14.211 47.5593 14.1677 47.0461 14.3895 46.3508C14.6109 45.6567 15.0796 44.8426 15.7836 43.9599C17.1891 42.1977 19.4627 40.2488 22.277 38.5509Z" stroke="black" stroke-opacity="0.26"/>
<ellipse cx="21.3339" cy="38.2298" rx="4.46644" ry="12.0599" transform="rotate(-106.824 21.3339 38.2298)" fill="url(#paint14_angular)"/>
<path d="M20.1859 34.4331C23.332 33.4818 26.3021 33.1001 28.5519 33.2376C29.6789 33.3065 30.5973 33.5041 31.2609 33.8048C31.9256 34.1061 32.2775 34.4821 32.399 34.884C32.5206 35.2858 32.4359 35.7938 32.0495 36.4129C31.6638 37.0309 31.0087 37.7043 30.1087 38.3861C28.312 39.7472 25.628 41.0752 22.4819 42.0265C19.3358 42.9778 16.3657 43.3595 14.1158 43.222C12.9889 43.1531 12.0704 42.9555 11.4069 42.6548C10.7422 42.3535 10.3903 41.9775 10.2687 41.5757C10.1472 41.1738 10.2319 40.6658 10.6183 40.0467C11.004 39.4287 11.6591 38.7553 12.559 38.0735C14.3557 36.7124 17.0398 35.3845 20.1859 34.4331Z" stroke="black" stroke-opacity="0.26"/>
<ellipse cx="37.7736" cy="47.8698" rx="4.46643" ry="12.0599" transform="rotate(162.87 37.7736 47.8698)" fill="url(#paint15_angular)"/>
<path d="M33.9832 49.0381C33.0151 45.8972 32.6174 42.9291 32.743 40.6786C32.8058 39.5512 32.9985 38.6318 33.2957 37.9666C33.5934 37.3003 33.9675 36.9464 34.3687 36.8227C34.7699 36.6991 35.2784 36.781 35.8995 37.1641C36.5196 37.5465 37.1965 38.198 37.8831 39.0943C39.2538 40.8837 40.596 43.5606 41.5641 46.7016C42.5322 49.8425 42.9298 52.8106 42.8043 55.0611C42.7415 56.1885 42.5488 57.1079 42.2516 57.7731C41.9539 58.4394 41.5798 58.7933 41.1786 58.917C40.7773 59.0406 40.2689 58.9587 39.6477 58.5756C39.0277 58.1932 38.3508 57.5417 37.6642 56.6454C36.2935 54.856 34.9513 52.1791 33.9832 49.0381Z" stroke="black" stroke-opacity="0.26"/>
<ellipse cx="33.4395" cy="33.794" rx="8.56193" ry="8.56193" transform="rotate(-17.2843 33.4395 33.794)" fill="url(#paint16_radial)"/>
<path d="M41.1374 31.3987C42.4603 35.6501 40.0862 40.169 35.8348 41.4918C31.5834 42.8147 27.0645 40.4407 25.7416 36.1893C24.4187 31.9379 26.7928 27.419 31.0442 26.0961C35.2956 24.7732 39.8145 27.1473 41.1374 31.3987Z" stroke="black" stroke-opacity="0.26"/>
</g>
<g filter="url(#filter1_d)">
<path d="M55.4812 46.28C55.6012 46.24 55.7812 46.22 56.0212 46.22C56.7012 46.22 57.0412 46.66 57.0412 47.54C57.0412 48.02 56.9312 48.43 56.7112 48.77C56.5112 49.09 56.1912 49.29 55.7512 49.37C53.9312 49.71 52.1412 50.09 50.3812 50.51L50.2912 51.23C49.7312 55.17 48.6112 58.08 46.9312 59.96C45.2712 61.86 43.1912 62.81 40.6912 62.81C39.0312 62.81 37.7412 62.4 36.8212 61.58C35.9212 60.78 35.4712 59.75 35.4712 58.49C35.4712 56.39 36.4112 54.52 38.2912 52.88C40.1712 51.24 43.0212 49.79 46.8412 48.53L47.4412 44.3C47.5212 43.82 47.6212 43.18 47.7412 42.38C46.8012 44.86 45.6012 46.71 44.1412 47.93C42.6812 49.15 41.0512 49.76 39.2512 49.76C37.5312 49.76 36.2212 49.24 35.3212 48.2C34.4212 47.14 33.9712 45.78 33.9712 44.12C33.9712 43.38 34.0512 42.57 34.2112 41.69C34.3712 40.79 34.6212 39.58 34.9612 38.06C35.2612 36.68 35.4812 35.58 35.6212 34.76C35.7812 33.94 35.8612 33.21 35.8612 32.57C35.8612 31.61 35.4912 31.13 34.7512 31.13C34.1712 31.13 33.4812 31.42 32.6812 32C31.9012 32.56 31.0712 33.43 30.1912 34.61C29.9112 34.99 29.6012 35.18 29.2612 35.18C28.9812 35.18 28.7312 35.05 28.5112 34.79C28.3112 34.51 28.2112 34.2 28.2112 33.86C28.2112 33.24 28.4912 32.54 29.0512 31.76C31.0912 28.96 33.4812 27.56 36.2212 27.56C37.4412 27.56 38.3912 27.93 39.0712 28.67C39.7712 29.41 40.1212 30.5 40.1212 31.94C40.1212 32.98 40.0212 34.05 39.8212 35.15C39.6412 36.23 39.3612 37.61 38.9812 39.29C38.7412 40.29 38.5612 41.1 38.4412 41.72C38.3212 42.32 38.2612 42.82 38.2612 43.22C38.2612 44.24 38.4412 44.97 38.8012 45.41C39.1612 45.85 39.7912 46.07 40.6912 46.07C41.7712 46.07 42.8712 45.48 43.9912 44.3C45.1312 43.1 46.1512 41.29 47.0512 38.87C47.9712 36.45 48.6312 33.49 49.0312 29.99C49.1312 29.11 49.3612 28.49 49.7212 28.13C50.0812 27.75 50.6012 27.56 51.2812 27.56C52.6812 27.56 53.3812 28.26 53.3812 29.66C53.3812 29.9 53.3712 30.09 53.3512 30.23C52.9312 33.21 52.5412 35.9 52.1812 38.3C51.9812 39.74 51.7612 41.22 51.5212 42.74C51.3012 44.26 51.0812 45.8 50.8612 47.36C52.3212 46.96 53.8612 46.6 55.4812 46.28ZM46.3912 51.68C41.5512 53.36 39.1312 55.4 39.1312 57.8C39.1312 58.36 39.3012 58.82 39.6412 59.18C40.0012 59.56 40.5012 59.75 41.1412 59.75C43.9212 59.75 45.6612 57.13 46.3612 51.89L46.3912 51.68Z" fill="black"/>
</g>
<defs>
<filter id="filter0_d" x="-4.4939" y="-4.54791" width="86.4913" height="86.7221" filterUnits="userSpaceOnUse" color-interpolation-filters="sRGB">
<feFlood flood-opacity="0" result="BackgroundImageFix"/>
<feColorMatrix in="SourceAlpha" type="matrix" values="0 0 0 0 0 0 0 0 0 0 0 0 0 0 0 0 0 0 127 0"/>
<feOffset dx="5" dy="5"/>
<feGaussianBlur stdDeviation="5"/>
<feColorMatrix type="matrix" values="0 0 0 0 0 0 0 0 0 0 0 0 0 0 0 0 0 0 0.25 0"/>
<feBlend mode="normal" in2="BackgroundImageFix" result="effect1_dropShadow"/>
<feBlend mode="normal" in="SourceGraphic" in2="effect1_dropShadow" result="shape"/>
</filter>
<filter id="filter1_d" x="23.2112" y="20.56" width="48.83" height="55.25" filterUnits="userSpaceOnUse" color-interpolation-filters="sRGB">
<feFlood flood-opacity="0" result="BackgroundImageFix"/>
<feColorMatrix in="SourceAlpha" type="matrix" values="0 0 0 0 0 0 0 0 0 0 0 0 0 0 0 0 0 0 127 0"/>
<feOffset dx="5" dy="3"/>
<feGaussianBlur stdDeviation="5"/>
<feColorMatrix type="matrix" values="0 0 0 0 0 0 0 0 0 0 0 0 0 0 0 0 0 0 0.25 0"/>
<feBlend mode="normal" in2="BackgroundImageFix" result="effect1_dropShadow"/>
<feBlend mode="normal" in="SourceGraphic" in2="effect1_dropShadow" result="shape"/>
</filter>
<radialGradient id="paint0_angular" cx="0" cy="0" r="1" gradientUnits="userSpaceOnUse" gradientTransform="translate(29.1351 20.1079) rotate(90) scale(12.0599 4.46643)">
<stop stop-color="white"/>
<stop offset="0.9998" stop-color="white" stop-opacity="0.770833"/>
<stop offset="0.9999" stop-color="white" stop-opacity="0.854167"/>
<stop offset="1" stop-color="white" stop-opacity="0"/>
</radialGradient>
<radialGradient id="paint1_angular" cx="0" cy="0" r="1" gradientUnits="userSpaceOnUse" gradientTransform="translate(45.1183 30.6303) rotate(90) scale(12.0599 4.46643)">
<stop stop-color="white"/>
<stop offset="0.9998" stop-color="white" stop-opacity="0.770833"/>
<stop offset="0.9999" stop-color="white" stop-opacity="0.854167"/>
<stop offset="1" stop-color="white" stop-opacity="0"/>
</radialGradient>
<radialGradient id="paint2_angular" cx="0" cy="0" r="1" gradientUnits="userSpaceOnUse" gradientTransform="translate(47.0749 34.4308) rotate(90) scale(12.0599 4.46644)">
<stop stop-color="white"/>
<stop offset="0.9998" stop-color="white" stop-opacity="0.770833"/>
<stop offset="0.9999" stop-color="white" stop-opacity="0.854167"/>
<stop offset="1" stop-color="white" stop-opacity="0"/>
</radialGradient>
<radialGradient id="paint3_angular" cx="0" cy="0" r="1" gradientUnits="userSpaceOnUse" gradientTransform="translate(41.164 20.0746) rotate(90) scale(12.0599 4.46644)">
<stop stop-color="white"/>
<stop offset="0.9998" stop-color="white" stop-opacity="0.770833"/>
<stop offset="0.9999" stop-color="white" stop-opacity="0.854167"/>
<stop offset="1" stop-color="white" stop-opacity="0"/>
</radialGradient>
<radialGradient id="paint4_angular" cx="0" cy="0" r="1" gradientUnits="userSpaceOnUse" gradientTransform="translate(44.9795 23.931) rotate(90) scale(12.0599 4.46643)">
<stop stop-color="white"/>
<stop offset="0.9998" stop-color="white" stop-opacity="0.770833"/>
<stop offset="0.9999" stop-color="white" stop-opacity="0.854167"/>
<stop offset="1" stop-color="white" stop-opacity="0"/>
</radialGradient>
<radialGradient id="paint5_angular" cx="0" cy="0" r="1" gradientUnits="userSpaceOnUse" gradientTransform="translate(25.0427 47.9272) rotate(90) scale(12.0599 4.46644)">
<stop stop-color="white"/>
<stop offset="0.9998" stop-color="white" stop-opacity="0.770833"/>
<stop offset="0.9999" stop-color="white" stop-opacity="0.854167"/>
<stop offset="1" stop-color="white" stop-opacity="0"/>
</radialGradient>
<radialGradient id="paint6_angular" cx="0" cy="0" r="1" gradientUnits="userSpaceOnUse" gradientTransform="translate(19.2713 28.1897) rotate(90) scale(12.0599 4.46643)">
<stop stop-color="white"/>
<stop offset="0.9998" stop-color="white" stop-opacity="0.770833"/>
<stop offset="0.9999" stop-color="white" stop-opacity="0.854167"/>
<stop offset="1" stop-color="white" stop-opacity="0"/>
</radialGradient>
<radialGradient id="paint7_angular" cx="0" cy="0" r="1" gradientUnits="userSpaceOnUse" gradientTransform="translate(48.4669 41.4207) rotate(90) scale(12.0599 4.46643)">
<stop stop-color="white"/>
<stop offset="0.9998" stop-color="white" stop-opacity="0.770833"/>
<stop offset="0.9999" stop-color="white" stop-opacity="0.854167"/>
<stop offset="1" stop-color="white" stop-opacity="0"/>
</radialGradient>
<radialGradient id="paint8_angular" cx="0" cy="0" r="1" gradientUnits="userSpaceOnUse" gradientTransform="translate(23.5057 24.6309) rotate(90) scale(12.06 4.46643)">
<stop stop-color="white"/>
<stop offset="0.9998" stop-color="white" stop-opacity="0.770833"/>
<stop offset="0.9999" stop-color="white" stop-opacity="0.854167"/>
<stop offset="1" stop-color="white" stop-opacity="0"/>
</radialGradient>
<radialGradient id="paint9_angular" cx="0" cy="0" r="1" gradientUnits="userSpaceOnUse" gradientTransform="translate(42.348 44.3607) rotate(90) scale(12.0599 4.46643)">
<stop stop-color="white"/>
<stop offset="0.9998" stop-color="white" stop-opacity="0.770833"/>
<stop offset="0.9999" stop-color="white" stop-opacity="0.854167"/>
<stop offset="1" stop-color="white" stop-opacity="0"/>
</radialGradient>
<radialGradient id="paint10_angular" cx="0" cy="0" r="1" gradientUnits="userSpaceOnUse" gradientTransform="translate(34.9175 20.3222) rotate(90) scale(12.0599 4.46643)">
<stop stop-color="white"/>
<stop offset="0.9998" stop-color="white" stop-opacity="0.770833"/>
<stop offset="0.9999" stop-color="white" stop-opacity="0.854167"/>
<stop offset="1" stop-color="white" stop-opacity="0"/>
</radialGradient>
<radialGradient id="paint11_angular" cx="0" cy="0" r="1" gradientUnits="userSpaceOnUse" gradientTransform="translate(30.5084 47.9728) rotate(90) scale(12.06 4.46644)">
<stop stop-color="white"/>
<stop offset="0.9998" stop-color="white" stop-opacity="0.770833"/>
<stop offset="0.9999" stop-color="white" stop-opacity="0.854167"/>
<stop offset="1" stop-color="white" stop-opacity="0"/>
</radialGradient>
<radialGradient id="paint12_angular" cx="0" cy="0" r="1" gradientUnits="userSpaceOnUse" gradientTransform="translate(19.1273 32.9539) rotate(90) scale(12.0599 4.46644)">
<stop stop-color="white"/>
<stop offset="0.9998" stop-color="white" stop-opacity="0.770833"/>
<stop offset="0.9999" stop-color="white" stop-opacity="0.854167"/>
<stop offset="1" stop-color="white" stop-opacity="0"/>
</radialGradient>
<radialGradient id="paint13_angular" cx="0" cy="0" r="1" gradientUnits="userSpaceOnUse" gradientTransform="translate(24.3259 41.9471) rotate(90) scale(12.0599 4.46643)">
<stop stop-color="white"/>
<stop offset="0.9998" stop-color="white" stop-opacity="0.770833"/>
<stop offset="0.9999" stop-color="white" stop-opacity="0.854167"/>
<stop offset="1" stop-color="white" stop-opacity="0"/>
</radialGradient>
<radialGradient id="paint14_angular" cx="0" cy="0" r="1" gradientUnits="userSpaceOnUse" gradientTransform="translate(21.3339 38.2298) rotate(90) scale(12.0599 4.46644)">
<stop stop-color="white"/>
<stop offset="0.9998" stop-color="white" stop-opacity="0.770833"/>
<stop offset="0.9999" stop-color="white" stop-opacity="0.854167"/>
<stop offset="1" stop-color="white" stop-opacity="0"/>
</radialGradient>
<radialGradient id="paint15_angular" cx="0" cy="0" r="1" gradientUnits="userSpaceOnUse" gradientTransform="translate(37.7736 47.8698) rotate(90) scale(12.0599 4.46643)">
<stop stop-color="white"/>
<stop offset="0.9998" stop-color="white" stop-opacity="0.770833"/>
<stop offset="0.9999" stop-color="white" stop-opacity="0.854167"/>
<stop offset="1" stop-color="white" stop-opacity="0"/>
</radialGradient>
<radialGradient id="paint16_radial" cx="0" cy="0" r="1" gradientUnits="userSpaceOnUse" gradientTransform="translate(33.4395 33.794) rotate(90) scale(8.56193)">
<stop offset="0.875" stop-color="#F5F2A1"/>
<stop offset="1" stop-color="#FEFDDF" stop-opacity="0"/>
</radialGradient>
</defs>
</svg>
